module github.com/gravitational/teleport-plugins

go 1.18

require (
	github.com/DanielTitkov/go-adaptive-cards v0.2.2
	github.com/alecthomas/kong v0.2.17
	github.com/ghodss/yaml v1.0.0
	github.com/go-resty/resty/v2 v2.3.0
	github.com/gogo/protobuf v1.3.2
	github.com/google/go-querystring v1.0.0
	github.com/google/uuid v1.2.0
	github.com/gravitational/kingpin v2.1.11-0.20190130013101-742f2714c145+incompatible
	github.com/gravitational/teleport/api v0.0.0-20220930232149-2fa94542d677 // tag v10.3.1
	github.com/gravitational/trace v1.1.17
	github.com/hashicorp/go-version v1.3.0
	github.com/hashicorp/terraform-plugin-framework v0.10.0
	github.com/hashicorp/terraform-plugin-go v0.12.0
	github.com/hashicorp/terraform-plugin-sdk/v2 v2.10.1
	github.com/jonboulle/clockwork v0.2.2
	github.com/json-iterator/go v1.1.12
	github.com/julienschmidt/httprouter v1.3.0
	github.com/mailgun/holster/v3 v3.15.2
	github.com/mailgun/mailgun-go/v4 v4.5.3
	github.com/manifoldco/promptui v0.8.0
	github.com/pelletier/go-toml v1.8.0
	github.com/peterbourgon/diskv/v3 v3.0.0
	github.com/sethvargo/go-limiter v0.7.2
	github.com/sirupsen/logrus v1.8.1
	github.com/stretchr/testify v1.7.2
	github.com/tidwall/gjson v1.14.1
	golang.org/x/net v0.0.0-20220127200216-cd36cc0744dd
	golang.org/x/sync v0.0.0-20210220032951-036812b2e83c
	google.golang.org/grpc v1.49.0
	google.golang.org/protobuf v1.28.0
	gopkg.in/mail.v2 v2.3.1
	k8s.io/apimachinery v0.24.1
)

require (
	github.com/agext/levenshtein v1.2.2 // indirect
	github.com/alecthomas/assert v0.0.0-20170929043011-405dbfeb8e38 // indirect
	github.com/alecthomas/colour v0.1.0 // indirect
	github.com/alecthomas/repr v0.0.0-20200325044227-4184120f674c // indirect
	github.com/alecthomas/template v0.0.0-20190718012654-fb15b899a751 // indirect
	github.com/alecthomas/units v0.0.0-20210208195552-ff826a37aa15 // indirect
	github.com/apparentlymart/go-textseg v1.0.0 // indirect
	github.com/apparentlymart/go-textseg/v13 v13.0.0 // indirect
	github.com/beevik/etree v1.1.0 // indirect
	github.com/cenkalti/backoff/v4 v4.1.3 // indirect
	github.com/chzyer/readline v0.0.0-20180603132655-2972be24d48e // indirect
	github.com/davecgh/go-spew v1.1.1 // indirect
	github.com/fatih/color v1.13.0 // indirect
	github.com/felixge/httpsnoop v1.0.2 // indirect
	github.com/go-logr/logr v1.2.3 // indirect
	github.com/go-logr/stdr v1.2.2 // indirect
	github.com/golang/protobuf v1.5.2 // indirect
	github.com/google/btree v1.0.1 // indirect
	github.com/google/go-cmp v0.5.8 // indirect
	github.com/gorilla/mux v1.8.0 // indirect
	github.com/grpc-ecosystem/grpc-gateway/v2 v2.7.0 // indirect
	github.com/hashicorp/errwrap v1.0.0 // indirect
	github.com/hashicorp/go-checkpoint v0.5.0 // indirect
	github.com/hashicorp/go-cleanhttp v0.5.2 // indirect
	github.com/hashicorp/go-cty v1.4.1-0.20200414143053-d3edf31b6320 // indirect
	github.com/hashicorp/go-hclog v1.2.1 // indirect
	github.com/hashicorp/go-multierror v1.1.1 // indirect
	github.com/hashicorp/go-plugin v1.4.4 // indirect
	github.com/hashicorp/go-uuid v1.0.3 // indirect
	github.com/hashicorp/hc-install v0.3.1 // indirect
	github.com/hashicorp/hcl/v2 v2.3.0 // indirect
	github.com/hashicorp/logutils v1.0.0 // indirect
	github.com/hashicorp/terraform-exec v0.15.0 // indirect
	github.com/hashicorp/terraform-json v0.13.0 // indirect
	github.com/hashicorp/terraform-plugin-log v0.6.0 // indirect
	github.com/hashicorp/terraform-registry-address v0.0.0-20220623143253-7d51757b572c // indirect
	github.com/hashicorp/terraform-svchost v0.0.0-20200729002733-f050f53b9734 // indirect
	github.com/hashicorp/yamux v0.0.0-20181012175058-2f1d1f20f75d // indirect
	github.com/juju/ansiterm v0.0.0-20180109212912-720a0952cc2a // indirect
	github.com/lunixbochs/vtclean v0.0.0-20180621232353-2d01aacdc34a // indirect
	github.com/mattermost/xml-roundtrip-validator v0.1.0 // indirect
	github.com/mattn/go-colorable v0.1.12 // indirect
	github.com/mattn/go-isatty v0.0.14 // indirect
	github.com/mitchellh/copystructure v1.2.0 // indirect
	github.com/mitchellh/go-testing-interface v1.14.1 // indirect
	github.com/mitchellh/go-wordwrap v1.0.0 // indirect
	github.com/mitchellh/mapstructure v1.1.2 // indirect
	github.com/mitchellh/reflectwalk v1.0.2 // indirect
	github.com/modern-go/concurrent v0.0.0-20180306012644-bacd9c7ef1dd // indirect
	github.com/modern-go/reflect2 v1.0.2 // indirect
	github.com/oklog/run v1.0.0 // indirect
	github.com/pkg/errors v0.9.1 // indirect
	github.com/pmezard/go-difflib v1.0.0 // indirect
	github.com/russellhaering/gosaml2 v0.6.1-0.20210916051624-757d23f1bc28 // indirect
	github.com/russellhaering/goxmldsig v1.1.1 // indirect
	github.com/tidwall/match v1.1.1 // indirect
	github.com/tidwall/pretty v1.2.0 // indirect
	github.com/vmihailenco/msgpack v4.0.4+incompatible // indirect
	github.com/vmihailenco/msgpack/v4 v4.3.12 // indirect
	github.com/vmihailenco/tagparser v0.1.1 // indirect
	github.com/zclconf/go-cty v1.9.1 // indirect
	go.opentelemetry.io/contrib/instrumentation/google.golang.org/grpc/otelgrpc v0.31.0 // indirect
	go.opentelemetry.io/contrib/instrumentation/net/http/otelhttp v0.31.0 // indirect
	go.opentelemetry.io/otel v1.7.0 // indirect
	go.opentelemetry.io/otel/exporters/otlp/internal/retry v1.7.0 // indirect
	go.opentelemetry.io/otel/exporters/otlp/otlptrace v1.7.0 // indirect
	go.opentelemetry.io/otel/exporters/otlp/otlptrace/otlptracegrpc v1.7.0 // indirect
	go.opentelemetry.io/otel/metric v0.28.0 // indirect
	go.opentelemetry.io/otel/sdk v1.7.0 // indirect
	go.opentelemetry.io/otel/trace v1.7.0 // indirect
	go.opentelemetry.io/proto/otlp v0.16.0 // indirect
	golang.org/x/crypto v0.0.0-20220126234351-aa10faf2a1f8 // indirect
	golang.org/x/sys v0.0.0-20220503163025-988cb79eb6c6 // indirect
	golang.org/x/term v0.0.0-20210927222741-03fcf44c2211 // indirect
	golang.org/x/text v0.3.7 // indirect
	google.golang.org/appengine v1.6.6 // indirect
	google.golang.org/genproto v0.0.0-20211118181313-81c1377c94b1 // indirect
	gopkg.in/alexcesaro/quotedprintable.v3 v3.0.0-20150716171945-2caba252f4dc // indirect
	gopkg.in/yaml.v2 v2.4.0 // indirect
	gopkg.in/yaml.v3 v3.0.1 // indirect
	sigs.k8s.io/json v0.0.0-20211208200746-9f7c6b3444d2 // indirect
	sigs.k8s.io/yaml v1.2.0 // indirect
)

replace (
	github.com/gogo/protobuf => github.com/gravitational/protobuf v1.3.2-0.20201123192827-2b9fcfaffcbf
	github.com/julienschmidt/httprouter => github.com/rw-access/httprouter v1.3.1-0.20210321233808-98e93175c124
)
