should match the snapshot:
  1: |
    apiVersion: v1
    data:
      teleport-mattermost.toml: |
        [teleport]
        addr = "teleport.example.com:1234"
        identity = "/var/lib/teleport/plugins/mattermost/auth_id"

        [mattermost]
        url        = "https://my.mattermost.com"
        token      = "/var/lib/teleport/plugins/mattermost/mattermost_token"
        recipients = ["security@example.com"]

        [log]
        output = "/var/log/teleport-mattermost.log"
        severity = "DEBUG"
    kind: ConfigMap
    metadata:
      labels:
        app.kubernetes.io/instance: RELEASE-NAME
        app.kubernetes.io/managed-by: Helm
        app.kubernetes.io/name: teleport-plugin-mattermost
        app.kubernetes.io/version: 10.3.1
        helm.sh/chart: teleport-plugin-mattermost-10.3.1
      name: RELEASE-NAME-teleport-plugin-mattermost
