should match the snapshot:
  1: |
    apiVersion: apps/v1
    kind: Deployment
    metadata:
      labels:
        app.kubernetes.io/instance: RELEASE-NAME
        app.kubernetes.io/managed-by: Helm
        app.kubernetes.io/name: teleport-plugin-event-handler
        app.kubernetes.io/version: 10.3.1
        helm.sh/chart: teleport-plugin-event-handler-10.3.1
      name: RELEASE-NAME-teleport-plugin-event-handler
    spec:
      replicas: 1
      selector:
        matchLabels:
          app.kubernetes.io/instance: RELEASE-NAME
          app.kubernetes.io/name: teleport-plugin-event-handler
      template:
        metadata:
          labels:
            app.kubernetes.io/instance: RELEASE-NAME
            app.kubernetes.io/name: teleport-plugin-event-handler
        spec:
          containers:
          - command:
            - /usr/local/bin/teleport-event-handler
            - start
            - --config
            - /etc/teleport-event-handler.toml
            image: gcr.io/overridden/repository:v98.76.54
            imagePullPolicy: IfNotPresent
            name: teleport-plugin-event-handler
            ports:
            - containerPort: 80
              name: http
              protocol: TCP
            resources: {}
            securityContext: {}
            volumeMounts:
            - mountPath: /etc/teleport-event-handler.toml
              name: config
              subPath: teleport-event-handler.toml
            - mountPath: /var/lib/teleport/plugins/event-handler/auth_id
              name: auth-id
              subPath: auth_id
            - mountPath: /var/lib/teleport/plugins/event-handler/ca.crt
              name: certificate
              subPath: ca.crt
            - mountPath: /var/lib/teleport/plugins/event-handler/client.crt
              name: certificate
              subPath: client.crt
            - mountPath: /var/lib/teleport/plugins/event-handler/client.key
              name: certificate
              subPath: client.key
          securityContext: {}
          volumes:
          - configMap:
              defaultMode: 384
              name: RELEASE-NAME-teleport-plugin-event-handler
            name: config
          - name: auth-id
            secret:
              defaultMode: 384
              secretName: ""
          - name: certificate
            secret:
              defaultMode: 384
              secretName: ""
